0,0
10000,0
20000,1
30000,1
40000,1
50000,2
60000,2
70000,3
80000,4
90000,4
100000,5
110000,5
120000,5
130000,6
140000,6
150000,7
160000,8
170000,9
180000,9
190000,9
200000,9
210000,10
220000,11
230000,11
240000,11
250000,12
260000,12
270000,12
280000,12
290000,13
300000,14
