0,0
10000,1
20000,2
30000,3
40000,4
50000,5
60000,5
70000,6
80000,6
90000,7
100000,8
110000,8
120000,9
130000,9
140000,10
150000,10
160000,11
170000,11
180000,12
190000,12
200000,12
210000,13
220000,13
230000,13
240000,14
250000,14
260000,14
270000,15
280000,15
290000,15
300000,15
310000,16
320000,16
330000,16
340000,16
350000,17
360000,17
370000,17
380000,17
390000,17
400000,18
410000,18
420000,18
430000,18
440000,18
450000,18
460000,19
470000,19
480000,19
490000,19
500000,19
510000,19
520000,19
530000,19
540000,20
550000,20
560000,20
570000,20
580000,20
590000,20
600000,20
610000,20
620000,20
630000,20
640000,20
650000,20
660000,21
670000,21
680000,21
690000,21
700000,21
710000,21
720000,21
730000,21
740000,21
750000,21
760000,21
770000,21
780000,21
790000,21
800000,21
810000,21
820000,21
830000,21
840000,21
850000,21
860000,21
870000,21
880000,21
890000,21
900000,21
910000,21
