0,0
10000,160
20000,160
30000,160
40000,430
50000,544
60000,544
70000,704
80000,704
90000,834
100000,865
110000,952
120000,1009
130000,1065
140000,1139
150000,1139
160000,1235
170000,1278
180000,1365
190000,1365
200000,1425
210000,1425
220000,1425
230000,1501
240000,1501
250000,1501
260000,1575
270000,1589
280000,1589
290000,1589
300000,1663
