0,0
10000,1
20000,1
30000,1
40000,1
50000,1
60000,1
70000,1
80000,1
90000,1
100000,1
110000,1
120000,1
130000,1
140000,1
150000,1
160000,1
170000,1
180000,1
190000,1
200000,1
210000,1
220000,1
230000,1
240000,1
250000,1
260000,1
270000,1
280000,1
290000,1
300000,1
