0,0
10000,1
20000,2
30000,2
40000,3
50000,4
60000,5
70000,5
80000,5
90000,6
100000,6
110000,7
120000,7
130000,8
140000,8
150000,8
160000,9
170000,9
180000,10
190000,10
200000,11
210000,11
220000,11
230000,12
240000,12
250000,12
260000,13
270000,13
280000,13
290000,13
300000,14
